<?xml version="1.0" encoding="UTF-8"?>
<svg width="120px" height="120px" viewBox="0 0 120 120" version="1.1" xmlns="http://www.w3.org/2000/svg" xmlns:xlink="http://www.w3.org/1999/xlink">
    <!-- Generator: Sketch 44 (41411) - http://www.bohemiancoding.com/sketch -->
    <title>planet</title>
    <desc>Created with Sketch.</desc>
    <defs></defs>
    <g id="______Slice" stroke="none" stroke-width="1" fill="none" fill-rule="evenodd">
        <g id="home" transform="translate(-796.000000, -4155.000000)">
            <g id="planet" transform="translate(801.000000, 4161.000000)">
                <path d="M97,23 C97,19.687 94.313,17 91,17 C87.687,17 85,19.687 85,23 C85,26.313 87.687,29 91,29 C94.313,29 97,26.313 97,23" id="Fill-240" fill="#7AC9D0"></path>
                <path d="M94.328,20.328 C95.119,20.328 95.873,20.485 96.564,20.764 C95.677,18.559 93.522,17 91,17 C87.686,17 85,19.687 85,23 C85,25.523 86.558,27.678 88.763,28.565 C88.485,27.873 88.328,27.12 88.328,26.328 C88.328,23.015 91.014,20.328 94.328,20.328" id="Fill-241" fill="#57B9C3"></path>
                <path d="M87.7816455,47.6916412 C82.6356455,28.4866412 62.8956455,17.0896412 43.6906455,22.2356412 C24.4866455,27.3816412 13.0896455,47.1216412 18.2356455,66.3266412 C23.3816455,85.5316412 43.1216455,96.9286412 62.3256455,91.7826412 C81.5306455,86.6366412 92.9276455,66.8966412 87.7816455,47.6916412" id="Fill-242" fill="#7AC9D0"></path>
                <path d="M87.704,48.184 C86.165,42.44 83.313,37.402 79.567,33.289 C77.346,30.849 74.809,28.735 72.038,27 C73.425,28.469 74.696,30.06 75.846,31.753 C78.192,35.208 80.017,39.101 81.159,43.362 C86.635,63.801 74.506,84.809 54.067,90.285 C49.684,91.459 45.277,91.819 41,91.466 C47.611,93.794 54.967,94.226 62.248,92.275 C81.453,87.129 92.85,67.389 87.704,48.184" id="Fill-243" fill="#ABDBE2"></path>
                <path d="M72.1166412,26.5058108 C63.9406412,21.3858108 53.7446412,19.5408108 43.6916412,22.2338108 C24.4866412,27.3798108 13.0896412,47.1198108 18.2356412,66.3248108 C21.0746412,76.9178108 28.3566412,85.1268108 37.5356412,89.5028108 C33.7906412,85.3898108 30.9386412,80.3518108 29.3996412,74.6078108 C24.2536412,55.4028108 35.6506412,35.6628108 54.8556412,30.5168108 C62.0706412,28.5838108 69.3606412,28.9858108 75.9246412,31.2588108 C77.1956412,31.6998108 78.4356412,32.2168108 79.6456412,32.7948108 C77.4246412,30.3548108 74.8876412,28.2408108 72.1166412,26.5058108" id="Fill-244" fill="#49B1BC"></path>
                <path d="M87.7816455,47.6916412 C82.6356455,28.4866412 62.8956455,17.0896412 43.6906455,22.2356412 C24.4866455,27.3816412 13.0896455,47.1216412 18.2356455,66.3266412 C23.3816455,85.5316412 43.1216455,96.9286412 62.3256455,91.7826412 C81.5306455,86.6366412 92.9276455,66.8966412 87.7816455,47.6916412 Z" id="Stroke-250" stroke="#17317B" stroke-width="4" stroke-linecap="round"></path>
                <path d="M47.728,34 C47.583,34.036 47.437,34.073 47.292,34.112 C39.404,36.226 33.511,42.068 31,49.234" id="Stroke-251" stroke="#17317B" stroke-width="4" stroke-linecap="round"></path>
                <path d="M30,58 C30.018,59.157 30.121,60.325 30.314,61.494 C30.441,62.263 30.607,63.033 30.813,63.802" id="Stroke-252" stroke="#17317B" stroke-width="4" stroke-linecap="round"></path>
                <path d="M17.3316124,56.222 C8.86261242,61.135 4.11061242,66.121 5.13861242,69.957 C7.14561242,77.447 30.4316124,77.716 57.1486124,70.557 C83.8656124,63.398 103.896612,51.523 101.890612,44.033 C101.231612,41.576 98.2856124,39.896 93.6816124,39" id="Stroke-253" stroke="#17317B" stroke-width="4" stroke-linecap="round"></path>
                <path d="M97,23 C97,19.687 94.313,17 91,17 C87.687,17 85,19.687 85,23 C85,26.313 87.687,29 91,29 C94.313,29 97,26.313 97,23 Z" id="Stroke-254" stroke="#17317B" stroke-width="3.5" stroke-linecap="round"></path>
                <path d="M30,96 C29.568,96 29.188,96.274 29.052,96.684 L28.459,98.459 L26.684,99.051 C26.274,99.188 26,99.568 26,100 C26,100.432 26.274,100.812 26.684,100.948 L28.459,101.541 L29.052,103.316 C29.188,103.726 29.568,104 30,104 C30.432,104 30.812,103.726 30.948,103.316 L31.541,101.541 L33.316,100.948 C33.726,100.812 34,100.432 34,100 C34,99.568 33.726,99.188 33.316,99.051 L31.541,98.459 L30.948,96.684 C30.812,96.274 30.432,96 30,96" id="Fill-631" fill="#99D4DB"></path>
                <path d="M54,0 C53.568,0 53.188,0.274 53.051,0.684 L52.459,2.459 L50.684,3.051 C50.274,3.188 50,3.568 50,4 C50,4.432 50.274,4.812 50.684,4.949 L52.459,5.541 L53.051,7.316 C53.188,7.726 53.568,8 54,8 C54.432,8 54.812,7.726 54.949,7.316 L55.541,5.541 L57.316,4.949 C57.726,4.812 58,4.432 58,4 C58,3.568 57.726,3.188 57.316,3.051 L55.541,2.459 L54.949,0.684 C54.812,0.274 54.432,0 54,0" id="Fill-632" fill="#99D4DB"></path>
                <path d="M25,11 C23.896,11 23,11.896 23,13 C23,14.104 23.896,15 25,15 C26.104,15 27,14.104 27,13 C27,11.896 26.104,11 25,11" id="Fill-634" fill="#99D4DB"></path>
                <path d="M53,105 C51.896,105 51,105.896 51,107 C51,108.104 51.896,109 53,109 C54.104,109 55,108.104 55,107 C55,105.896 54.104,105 53,105" id="Fill-635" fill="#99D4DB"></path>
                <path d="M71,11 C69.896,11 69,11.896 69,13 C69,14.104 69.896,15 71,15 C72.104,15 73,14.104 73,13 C73,11.896 72.104,11 71,11" id="Fill-637" fill="#99D4DB"></path>
                <path d="M97,78 C96.568,78 96.188,78.274 96.051,78.684 L95.209,81.209 L92.684,82.051 C92.274,82.188 92,82.568 92,83 C92,83.432 92.274,83.812 92.684,83.949 L95.209,84.791 L96.051,87.316 C96.188,87.726 96.568,88 97,88 C97.432,88 97.812,87.726 97.949,87.316 L98.791,84.791 L101.316,83.949 C101.726,83.812 102,83.432 102,83 C102,82.568 101.726,82.188 101.316,82.051 L98.791,81.209 L97.949,78.684 C97.812,78.274 97.432,78 97,78" id="Fill-638" fill="#99D4DB"></path>
                <path d="M5,36 C4.568,36 4.188,36.274 4.051,36.684 L3.209,39.209 L0.684,40.051 C0.274,40.188 0,40.568 0,41 C0,41.432 0.274,41.812 0.684,41.949 L3.209,42.791 L4.051,45.316 C4.188,45.726 4.568,46 5,46 C5.432,46 5.812,45.726 5.948,45.316 L6.79,42.791 L9.316,41.949 C9.726,41.812 10,41.432 10,41 C10,40.568 9.726,40.188 9.316,40.051 L6.79,39.209 L5.948,36.684 C5.812,36.274 5.432,36 5,36" id="Fill-633" fill="#99D4DB"></path>
                <path d="M107,59 C105.896,59 105,59.896 105,61 C105,62.104 105.896,63 107,63 C108.104,63 109,62.104 109,61 C109,59.896 108.104,59 107,59" id="Fill-636" fill="#99D4DB"></path>
            </g>
        </g>
    </g>
</svg>