<?xml version="1.0" encoding="UTF-8"?>
<svg width="170px" height="100px" viewBox="0 0 170 100" version="1.1" xmlns="http://www.w3.org/2000/svg" xmlns:xlink="http://www.w3.org/1999/xlink">
    <!-- Generator: Sketch 44 (41411) - http://www.bohemiancoding.com/sketch -->
    <title>enterprise-didi--gray</title>
    <desc>Created with Sketch.</desc>
    <defs>
        <linearGradient x1="50.0009287%" y1="100.0014%" x2="50.0009287%" y2="-0.000233372229%" id="linearGradient-1">
            <stop stop-color="#E58313" offset="0%"></stop>
            <stop stop-color="#EAA82D" offset="100%"></stop>
        </linearGradient>
        <linearGradient x1="50.0009365%" y1="99.9990665%" x2="50.0009365%" y2="-0.000233366783%" id="linearGradient-2">
            <stop stop-color="#E07D12" offset="0%"></stop>
            <stop stop-color="#EAA017" offset="100%"></stop>
        </linearGradient>
        <linearGradient x1="0.000911540507%" y1="50.0007001%" x2="100.000946%" y2="50.0007001%" id="linearGradient-3">
            <stop stop-color="#ECCC49" stop-opacity="0.1" offset="0%"></stop>
            <stop stop-color="#ECCC49" stop-opacity="0.0859" offset="14.13%"></stop>
            <stop stop-color="#ECCC49" stop-opacity="0" offset="100%"></stop>
        </linearGradient>
    </defs>
    <g id="______Slice" stroke="none" stroke-width="1" fill="none" fill-rule="evenodd">
        <g id="about" transform="translate(-745.000000, -3216.000000)" fill-rule="nonzero">
            <g id="Group-6" transform="translate(745.000000, 3216.000000)">
                <g id="didi_color" transform="translate(17.000000, 28.000000)">
                    <g id="Shape" transform="translate(64.239261, 0.000000)">
                        <g id="Group" fill="#666767">
                            <path d="M1.91301485,10.1189767 C1.89177037,10.1046512 1.86749097,10.0974884 1.8442232,10.0974884 C1.80982738,10.0974884 1.77745484,10.111814 1.75216379,10.1384186 L0.226607788,11.9055814 C0.203340024,11.9332093 0.193223605,11.9659535 0.195246889,12.0017674 C0.197270173,12.0375814 0.216491369,12.0662326 0.244817342,12.0887442 C1.45170614,12.9984186 3.11788037,14.4299535 5.33641108,16.464186 C5.36069049,16.4846512 5.39103974,16.4969302 5.42037736,16.4969302 C5.45173826,16.4969302 5.48714572,16.4815814 5.51142513,16.4549767 C5.98183862,15.932093 6.56252108,15.2884651 7.28382176,14.4770233 C7.30607788,14.4524651 7.31821758,14.4186977 7.31315937,14.3849302 C7.31214773,14.352186 7.29596146,14.3194419 7.27168206,14.2969302 C5.15026897,12.5174884 3.3454998,11.1105116 1.91301485,10.1189767 L1.91301485,10.1189767 L1.91301485,10.1189767 Z" id="Shape"></path>
                            <path d="M6.46236853,20.0527442 C5.653055,19.7785116 4.83059012,19.4377674 4.00610197,19.0366512 C3.99092734,19.0294884 3.97170614,19.0253953 3.95349659,19.0253953 C3.93629868,19.0253953 3.91606584,19.0294884 3.89886792,19.0366512 C3.86548374,19.0550698 3.84019269,19.0857674 3.8331112,19.1246512 C2.90037736,23.7763721 1.91503814,27.7547907 0.904407868,30.9463256 C0.893279807,30.9780465 0.899349659,31.0128372 0.911489362,31.0445581 C0.92666399,31.0732093 0.954989964,31.0946977 0.985339221,31.1059535 L3.67327178,31.9071628 C3.68237656,31.9122791 3.69653954,31.9133023 3.70867925,31.9133023 C3.72992373,31.9133023 3.75116821,31.9071628 3.77140104,31.8969302 C3.80073866,31.8795349 3.82198314,31.8498605 3.82805299,31.8171163 C4.92669611,27.0507907 5.78861501,23.359907 6.54228824,20.2021395 C6.55847451,20.1376744 6.52407868,20.0732093 6.46236853,20.0527442 L6.46236853,20.0527442 L6.46236853,20.0527442 Z" id="Shape"></path>
                            <path d="M3.11079888,1.90837209 C3.09056604,1.88995349 3.06224006,1.88176744 3.03391409,1.88176744 C3.00052991,1.88176744 2.96714572,1.89404651 2.94387796,1.92269767 L1.39100763,3.61925581 C1.36773986,3.64381395 1.35560016,3.67860465 1.35863509,3.71339535 C1.35964673,3.74613953 1.37684464,3.77888372 1.40415897,3.80139535 C3.04099558,5.17051163 4.59690084,6.65116279 6.03140907,8.2024186 C6.05568848,8.22902326 6.08704938,8.24334884 6.12245684,8.24334884 L6.12245684,8.24334884 C6.15685267,8.24334884 6.19023685,8.22902326 6.21451626,8.2024186 L7.98691289,6.292 C8.00815737,6.2664186 8.02130871,6.23367442 8.01827379,6.20093023 C8.01827379,6.16613953 8.00309916,6.13544186 7.97780811,6.11293023 C6.00915295,4.31506977 4.41885187,2.94083721 3.11079888,1.90837209 L3.11079888,1.90837209 L3.11079888,1.90837209 Z" id="Shape"></path>
                            <path d="M32.4079486,3.93134884 L22.0618868,3.93134884 L22.0548053,0.388837209 C22.0548053,0.319255814 21.9971417,0.264 21.9283501,0.264 L19.0654035,0.264 C19.0350542,0.264 19.0036933,0.277302326 18.9784022,0.301860465 C18.9581694,0.324372093 18.9429948,0.356093023 18.9429948,0.389860465 L18.9510879,3.93134884 L8.53218788,3.93134884 C8.46541951,3.93134884 8.41079085,3.98660465 8.41079085,4.05618605 L8.41079085,5.87451163 C8.41079085,5.94409302 8.46541951,5.99934884 8.53218788,5.99934884 L12.953063,5.99934884 C13.102786,6.36772093 13.2686953,6.82102326 13.4467443,7.29990698 C13.7876676,8.228 14.1720915,9.27274419 14.6151907,10.2397209 L12.1123886,10.2397209 C10.2873866,10.1967442 9.47807306,10.916093 9.50538739,12.9830698 L9.50538739,32.1466047 C9.50538739,32.216186 9.56001606,32.2714419 9.62880771,32.2714419 L12.218611,32.2714419 C12.2853794,32.2714419 12.3410197,32.216186 12.3410197,32.1466047 L12.3410197,13.4834419 C12.3582176,12.7282791 12.653617,12.4172093 13.3981855,12.4059535 L19.0502288,12.4059535 L19.0502288,15.4388837 L13.8524127,15.4388837 C13.783621,15.4388837 13.7289924,15.4931163 13.7289924,15.5637209 L13.7289924,17.212186 C13.7289924,17.2807442 13.783621,17.3380465 13.8524127,17.3380465 L19.0502288,17.3380465 L19.0502288,20.5582326 L15.0218707,20.5582326 C14.9520674,20.5582326 14.8974388,20.6155349 14.8974388,20.6830698 L14.8974388,28.5304186 C14.8974388,28.5979535 14.9520674,28.6562791 15.0218707,28.6562791 L22.8115134,28.6562791 C23.0320514,28.6644651 23.2283099,28.6685581 23.4124287,28.6685581 C24.5151184,28.6685581 25.1221036,28.4997209 25.5186672,28.0842791 C25.9283822,27.6545116 26.0831634,26.9617674 26.0386511,25.7737674 L26.0386511,20.684093 C26.0386511,20.6155349 25.9840225,20.5592558 25.9152308,20.5592558 L21.7543477,20.5592558 L21.7543477,17.3390698 L27.0846889,17.3390698 C27.1544922,17.3390698 27.2091208,17.2817674 27.2091208,17.2132093 L27.2091208,15.5637209 C27.2091208,15.492093 27.1544922,15.4388837 27.0846889,15.4388837 L21.7543477,15.4388837 L21.7543477,12.4059535 L27.4175191,12.4059535 C28.2885428,12.4049302 28.5030108,12.8715349 28.4635568,13.7873488 L28.4635568,28.7176744 C28.4635568,29.5741395 27.7887916,29.7542326 27.2202489,29.7542326 L24.081124,29.7542326 C24.0487515,29.7542326 24.0184022,29.7685581 23.9951345,29.7910698 C23.9718667,29.8146047 23.9607387,29.8463256 23.9607387,29.8811163 L23.9688318,31.9542326 C23.9688318,32.0227907 24.0244721,32.080093 24.0912405,32.080093 L28.2764031,32.080093 C30.2602328,32.080093 31.2678282,31.1141395 31.2678282,29.2129302 L31.3012124,13.1253023 C31.3244801,11.0787907 30.7043436,10.2151628 28.2885428,10.2397209 L26.2015255,10.2397209 C26.7741148,9.11004651 27.2607146,7.71023256 27.6552549,6.57339535 C27.7260699,6.37386047 27.7918266,6.18148837 27.8565717,6.00037209 L32.4079486,6.00037209 C32.4777519,6.00037209 32.5313689,5.94511628 32.5313689,5.87553488 L32.5313689,4.0572093 C32.5313689,3.98660465 32.4777519,3.93134884 32.4079486,3.93134884 L32.4079486,3.93134884 L32.4079486,3.93134884 Z M24.8489603,5.99934884 C24.5930149,6.61023256 23.8980169,8.39786047 23.4619992,9.52037209 C23.3385789,9.84065116 23.2364031,10.0974884 23.1807627,10.2397209 L17.7573505,10.2397209 C17.6713609,10.0268837 17.4437415,9.50297674 17.108888,8.73246512 C16.6698354,7.72455814 16.1377118,6.49972093 15.9444882,5.99934884 L24.8489603,5.99934884 L24.8489603,5.99934884 L24.8489603,5.99934884 Z M17.611674,26.8973023 L17.611674,22.5730233 L23.3203693,22.5730233 L23.3203693,25.5179535 C23.2981132,26.84 23.278892,26.8410233 22.1418065,26.8891163 L21.9688157,26.8962791 L17.611674,26.8962791 L17.611674,26.8973023 L17.611674,26.8973023 Z" id="Shape"></path>
                        </g>
                        <g id="Group" transform="translate(36.924930, 0.000000)" fill="#666767">
                            <path d="M2.09005219,9.88976744 C2.06880771,9.8744186 2.04351666,9.86827907 2.0202489,9.86827907 C1.98686471,9.86827907 1.95246889,9.8815814 1.92717784,9.91023256 L0.400610197,11.6773953 C0.379365717,11.704 0.367226014,11.7387907 0.373295865,11.7746047 C0.377342433,11.8093953 0.395551987,11.8380465 0.420843035,11.8605581 C1.62672019,12.7712558 3.29289442,14.2017674 5.51446006,16.236 C5.53570454,16.2564651 5.56706544,16.2677209 5.59640305,16.2677209 C5.62978723,16.2677209 5.66317142,16.2523721 5.68846246,16.2267907 C6.15887595,15.703907 6.74057005,15.0602791 7.45883581,14.247814 C7.48210357,14.2242791 7.49525492,14.1915349 7.49221999,14.1557209 C7.49019671,14.1219535 7.4729988,14.0912558 7.44770775,14.0687442 C5.32427138,12.2882791 3.52152549,10.8802791 2.09005219,9.88976744 L2.09005219,9.88976744 L2.09005219,9.88976744 Z" id="Shape"></path>
                            <path d="M6.63940586,19.8235349 C5.83110397,19.5482791 5.00459253,19.2075349 4.18516259,18.8074419 C4.16796467,18.7982326 4.15076676,18.7951628 4.13053392,18.7951628 C4.11030108,18.7951628 4.09310317,18.7992558 4.0769169,18.8074419 C4.04252108,18.8248372 4.01723003,18.8565581 4.00812525,18.8944186 C3.07842633,23.5461395 2.09308711,27.5245581 1.08043356,30.716093 C1.07031714,30.747814 1.07436371,30.7826047 1.08953834,30.8143256 C1.10471297,30.8429767 1.1320273,30.8634419 1.16439984,30.8757209 L3.8523324,31.675907 C3.86143717,31.6810233 3.87357688,31.6820465 3.88672822,31.6820465 C3.90594942,31.6820465 3.92820554,31.675907 3.94843838,31.6656744 C3.97777599,31.6493023 4.00003212,31.6186047 4.00711361,31.5858605 C5.10575672,26.8195349 5.96666399,23.1296744 6.72033721,19.971907 C6.73348856,19.9074419 6.70212766,19.844 6.63940586,19.8235349 L6.63940586,19.8235349 L6.63940586,19.8235349 Z" id="Shape"></path>
                            <path d="M3.28682457,1.67813953 C3.26558009,1.66074419 3.23826576,1.65153488 3.20993978,1.65153488 C3.17554396,1.65153488 3.1451947,1.66483721 3.11990365,1.69348837 L1.56602168,3.39004651 C1.54073063,3.41562791 1.53061421,3.44837209 1.53263749,3.48316279 C1.53567242,3.51693023 1.55185869,3.54967442 1.57714974,3.57218605 C3.21398635,4.94232558 4.77191489,6.42297674 6.20743477,7.9732093 C6.23070253,7.99981395 6.26206343,8.01413953 6.29645925,8.01413953 L6.29645925,8.01413953 C6.33186672,8.01413953 6.36423926,7.99981395 6.38750703,7.9732093 L8.15990365,6.06176744 C8.18215978,6.0372093 8.19429948,6.00548837 8.19429948,5.97172093 C8.19328784,5.93693023 8.17608992,5.90623256 8.1538338,5.88474419 C6.18720193,4.08586047 4.59386592,2.71060465 3.28682457,1.67813953 L3.28682457,1.67813953 L3.28682457,1.67813953 Z" id="Shape"></path>
                            <path d="M32.5849859,3.70111628 L22.2379125,3.70111628 L22.2298193,0.158604651 C22.2298193,0.0900465116 22.1751907,0.0347906977 22.106399,0.0347906977 L19.2434524,0.0347906977 C19.2100682,0.0347906977 19.1807306,0.0480930233 19.1554396,0.0726511628 C19.1331835,0.0951627907 19.1190205,0.126883721 19.1190205,0.159627907 L19.1281253,3.70111628 L8.70922521,3.70111628 C8.64245684,3.70111628 8.5858049,3.75637209 8.5858049,3.82595349 L8.5858049,5.64530233 C8.5858049,5.71386047 8.64245684,5.76911628 8.70922521,5.76911628 L13.131112,5.76911628 C13.280835,6.13851163 13.4477559,6.5907907 13.6237816,7.06967442 C13.9626817,7.99776744 14.3491289,9.04353488 14.7912164,10.0105116 L12.286391,10.0105116 C10.4603774,9.96753488 9.65207547,10.6858605 9.68141309,12.7528372 L9.68141309,31.9163721 C9.68141309,31.9869767 9.73503011,32.0412093 9.80281012,32.0412093 L12.3926134,32.0412093 C12.4614051,32.0412093 12.518057,31.9859535 12.518057,31.9163721 L12.518057,13.2542326 C12.5332316,12.500093 12.8266078,12.188 13.5742112,12.1767442 L19.2272662,12.1767442 L19.2272662,15.2096744 L14.0274267,15.2096744 C13.9596467,15.2096744 13.9040064,15.263907 13.9040064,15.3355349 L13.9040064,16.984 C13.9040064,17.0515349 13.9586351,17.1088372 14.0274267,17.1088372 L19.2272662,17.1088372 L19.2272662,20.328 L15.1978964,20.328 C15.1301164,20.328 15.0734645,20.3853023 15.0734645,20.4538605 L15.0734645,28.3012093 C15.0734645,28.3687442 15.1311281,28.4270698 15.1978964,28.4270698 L22.9875391,28.4270698 C23.2070654,28.4352558 23.4053473,28.4383256 23.5874428,28.4383256 C24.6901325,28.4383256 25.3001525,28.2705116 25.6936813,27.8540465 C26.1044079,27.4242791 26.2612124,26.7315349 26.2146768,25.5435349 L26.2146768,20.4538605 C26.2146768,20.3853023 26.1600482,20.328 26.0922682,20.328 L21.9293617,20.328 L21.9293617,17.1088372 L27.2637495,17.1088372 C27.3305179,17.1088372 27.3861582,17.0515349 27.3861582,16.984 L27.3861582,15.3355349 C27.3861582,15.2649302 27.3305179,15.2096744 27.2637495,15.2096744 L21.9293617,15.2096744 L21.9293617,12.1767442 L27.5935448,12.1767442 C28.4645684,12.1757209 28.6790365,12.6423256 28.6395825,13.5581395 L28.6395825,28.4874419 C28.6395825,29.343907 27.9627941,29.5229767 27.3942513,29.5229767 L24.2581614,29.5229767 C24.2247772,29.5229767 24.1924047,29.5373023 24.1701485,29.5608372 C24.1478924,29.5843721 24.1347411,29.616093 24.1347411,29.6508837 L24.1458691,31.7229767 C24.1478924,31.7925581 24.1994862,31.847814 24.2682778,31.847814 L28.4564753,31.847814 C30.4392935,31.847814 31.4438539,30.8828837 31.4438539,28.9816744 L31.4792613,12.8940465 C31.5025291,10.8465116 30.878346,9.98390698 28.4635568,10.0094884 L26.3745163,10.0094884 C26.9491289,8.87981395 27.434717,7.47897674 27.830269,6.34213953 C27.8990606,6.14362791 27.965829,5.95125581 28.0325974,5.76911628 L32.5829627,5.76911628 C32.649731,5.76911628 32.7053713,5.71386047 32.7053713,5.64530233 L32.7053713,3.82697674 C32.706383,3.75637209 32.6517543,3.70111628 32.5849859,3.70111628 L32.5849859,3.70111628 L32.5849859,3.70111628 Z M25.0239743,5.76911628 C24.7670173,6.38 24.0750542,8.16762791 23.6360016,9.29116279 C23.5135929,9.60939535 23.4134404,9.86725581 23.3567884,10.0094884 L17.9313529,10.0094884 C17.8483982,9.79665116 17.6207788,9.27274419 17.2859253,8.50223256 C16.8438378,7.49432558 16.3127258,6.27051163 16.1174789,5.76911628 L25.0239743,5.76911628 L25.0239743,5.76911628 L25.0239743,5.76911628 Z M17.789723,26.6670698 L17.789723,22.343814 L23.4974067,22.343814 L23.4974067,25.2897674 C23.4761622,26.611814 23.4528944,26.611814 22.3178322,26.6609302 L22.1468647,26.668093 L17.789723,26.668093 L17.789723,26.6670698 L17.789723,26.6670698 Z" id="Shape"></path>
                        </g>
                        <g id="Group" transform="translate(0.000000, 37.348837)" fill="#999999">
                            <path d="M26.3138177,1.09283721 L26.3138177,0.610883721 L32.62444,0.610883721 L32.62444,1.09283721 L29.451931,1.09283721 L29.451931,6.53962791 L28.8297712,6.53962791 L28.8297712,1.09283721 L26.3138177,1.09283721 L26.3138177,1.09283721 L26.3138177,1.09283721 Z M32.0518507,4.09302326 C31.2941309,3.56604651 30.5242714,3.14139535 29.7503653,2.82827907 L29.7695865,2.3135814 C30.6739944,2.60316279 31.423621,3.03293023 32.0518507,3.43302326 L32.0518507,4.09302326 L32.0518507,4.09302326 L32.0518507,4.09302326 Z" id="Shape"></path>
                            <path d="M40.8045765,4.73153488 L43.2567965,4.73153488 L43.2567965,4.35702326 L40.6659815,4.35702326 C40.6497953,4.30176744 40.6417021,4.23730233 40.6417021,4.16567442 L40.6417021,3.54148837 L43.3387395,3.54148837 L43.3387395,3.17209302 L40.6153994,3.17209302 L40.6153994,2.35348837 L42.8592212,2.35348837 L42.8592212,1.97693023 L40.6153994,1.97693023 L40.6153994,1.2227907 L43.1505741,1.2227907 L43.1505741,0.869767442 L41.8425211,0.869767442 C41.9295223,0.709116279 41.9861742,0.510604651 42.0033721,0.27627907 L41.4439342,0.27627907 C41.424713,0.491162791 41.3700843,0.69172093 41.2830831,0.869767442 L39.3882778,0.869767442 C39.3134163,0.69172093 39.2699157,0.491162791 39.2517061,0.27627907 L38.6882216,0.27627907 C38.7256523,0.510604651 38.7731995,0.709116279 38.8298515,0.869767442 L37.5187635,0.869767442 L37.5187635,1.2227907 L40.0276355,1.2227907 L40.0276355,1.97693023 L37.8667684,1.97693023 L37.8667684,2.35348837 L40.0276355,2.35348837 L40.0276355,3.17106977 L37.3569008,3.17106977 L37.3569008,3.54046512 L40.0549498,3.54046512 L40.0549498,4.16465116 C40.0549498,4.20046512 40.0276355,4.33655814 40.0276355,4.356 L37.4347973,4.356 L37.4347973,4.73051163 L39.8940988,4.73051163 C39.557222,5.32706977 38.6285347,5.75274419 37.2790044,5.96762791 L37.2790044,6.43423256 C38.7013729,6.21627907 39.7261662,5.75786047 40.3513609,5.05386047 C40.9542995,5.75786047 41.9821277,6.21627907 43.4216941,6.43423256 L43.4216941,5.93590698 C42.0124769,5.60948837 41.1414532,5.32809302 40.8045765,4.73153488 L40.8045765,4.73153488 L40.8045765,4.73153488 Z" id="Shape"></path>
                            <g id="Shape">
                                <g id="Group">
                                    <path d="M0.495704536,2.01274419 C0.779975913,2.2092093 1.13506222,2.49060465 1.57006825,2.85283721 C1.41731032,3.01962791 1.29995986,3.14855814 1.2068888,3.24474419 C0.777952629,2.84465116 0.439052589,2.55097674 0.194235247,2.36781395 L0.495704536,2.01274419 L0.495704536,2.01274419 L0.495704536,2.01274419 Z" id="Shape"></path>
                                    <path d="M0.922617423,3.8024186 C1.09358491,3.88530233 1.2574709,3.9507907 1.41731032,4.00604651 C1.25241269,4.68753488 1.07234043,5.45906977 0.872035327,6.3267907 L0.337888398,6.16511628 C0.535158571,5.52353488 0.733440385,4.73767442 0.922617423,3.8024186 L0.922617423,3.8024186 L0.922617423,3.8024186 Z" id="Shape"></path>
                                    <path d="M0.737486953,0.373488372 C0.998490566,0.581209302 1.32120434,0.86055814 1.70765155,1.21460465 L1.35357688,1.59627907 C1.06525893,1.28418605 0.757719791,0.991534884 0.421854677,0.714232558 L0.737486953,0.373488372 L0.737486953,0.373488372 L0.737486953,0.373488372 Z" id="Shape"></path>
                                </g>
                                <path d="M5.31112003,4.10939535 L3.13811321,4.10939535 L3.13811321,5.67497674 L4.69503011,5.67497674 C5.1775833,5.69032558 5.33034123,5.61665116 5.31112003,5.12855814 L5.31112003,4.10939535 L5.31112003,4.10939535 L5.31112003,4.10939535 Z M4.52406263,5.37311628 L3.62673625,5.37311628 L3.62673625,4.45832558 L4.81642714,4.45832558 L4.81642714,5.07534884 C4.81238057,5.37311628 4.78810116,5.36288372 4.52406263,5.37311628 L4.52406263,5.37311628 L4.52406263,5.37311628 Z"></path>
                                <path d="M6.61209153,1.14195349 L6.61209153,0.784837209 L4.56048173,0.784837209 L4.57464472,0.138139535 L4.00003212,0.138139535 L3.99092734,0.784837209 L1.83714171,0.784837209 L1.83714171,1.14195349 L2.73547973,1.14195349 C2.82855078,1.36809302 2.93983139,1.73544186 3.0895544,2.03934884 L2.54933762,2.03934884 C2.17199518,2.06186047 2.07487756,2.18465116 2.056668,2.56939535 L2.056668,6.39944186 L2.56957045,6.39944186 L2.56957045,2.72697674 C2.59081493,2.54688372 2.68995584,2.44660465 2.87306303,2.4292093 L3.96664793,2.4292093 L3.96664793,3.08613953 L2.89734243,3.08613953 L2.89734243,3.41255814 L3.96664793,3.41255814 L3.96664793,4.11655814 L4.45324769,4.11655814 L4.45324769,3.41255814 L5.54986752,3.41255814 L5.54986752,3.08613953 L4.45324769,3.08613953 L4.45324769,2.4292093 L5.57414693,2.4292093 C5.75320755,2.4292093 5.84830189,2.5264186 5.84830189,2.72697674 L5.84830189,5.71795349 C5.84830189,5.86018605 5.75421919,5.94511628 5.57414693,5.94511628 L4.9459173,5.94511628 L4.9459173,6.3615814 L5.78456845,6.3615814 C6.16798073,6.3615814 6.36120434,6.17534884 6.36120434,5.81004651 L6.36626255,2.59804651 C6.36626255,2.17851163 6.21957447,2.03934884 5.78456845,2.03934884 L5.32831794,2.03934884 C5.46994781,1.7692093 5.59336813,1.40390698 5.68239261,1.14195349 L6.61209153,1.14195349 L6.61209153,1.14195349 L6.61209153,1.14195349 Z M4.7840546,2.03934884 L3.66315536,2.03934884 C3.64393416,1.98818605 3.31616218,1.25860465 3.28075472,1.14195349 L5.13509434,1.14195349 C5.10069851,1.21972093 4.81845042,1.9544186 4.7840546,2.03934884 L4.7840546,2.03934884 L4.7840546,2.03934884 Z"></path>
                            </g>
                            <g id="Shape" transform="translate(9.104777, 0.000000)">
                                <g id="Group">
                                    <path d="M0.357109595,2.01274419 C0.632276194,2.2092093 0.989385789,2.49060465 1.42236853,2.85283721 C1.27466881,3.01962791 1.15529506,3.14855814 1.07031714,3.24474419 C0.633287836,2.84465116 0.294387796,2.55097674 0.0495704536,2.36781395 L0.357109595,2.01274419 L0.357109595,2.01274419 L0.357109595,2.01274419 Z" id="Shape"></path>
                                    <path d="M0.774917704,3.8024186 C0.944873545,3.88530233 1.11078282,3.9507907 1.26758731,4.00604651 C1.10572461,4.68753488 0.925652348,5.45906977 0.726358892,6.3267907 L0.191200321,6.16511628 C0.39150542,5.52353488 0.588775592,4.73767442 0.774917704,3.8024186 L0.774917704,3.8024186 L0.774917704,3.8024186 Z" id="Shape"></path>
                                    <path d="M0.589787234,0.373488372 C0.847755921,0.581209302 1.17653954,0.86055814 1.55792854,1.21460465 L1.20790044,1.59627907 C0.917559213,1.28418605 0.611031714,0.991534884 0.280224809,0.714232558 L0.589787234,0.373488372 L0.589787234,0.373488372 L0.589787234,0.373488372 Z" id="Shape"></path>
                                </g>
                                <path d="M5.16240867,4.10939535 L2.98940185,4.10939535 L2.98940185,5.67497674 L4.54429546,5.67497674 C5.02583701,5.69032558 5.18466479,5.61665116 5.16240867,5.12855814 L5.16240867,4.10939535 L5.16240867,4.10939535 L5.16240867,4.10939535 Z M4.37838619,5.37311628 L3.48207146,5.37311628 L3.48207146,4.45832558 L4.67277399,4.45832558 L4.67277399,5.07534884 C4.66569249,5.37311628 4.6393898,5.36288372 4.37838619,5.37311628 L4.37838619,5.37311628 L4.37838619,5.37311628 Z"></path>
                                <path d="M6.46135688,1.14195349 L6.46135688,0.784837209 L4.41885187,0.784837209 L4.42492172,0.134046512 L3.85435568,0.134046512 L3.84322762,0.784837209 L1.68741871,0.784837209 L1.68741871,1.14195349 L2.58879165,1.14195349 C2.67781614,1.36809302 2.80325974,1.73544186 2.94691289,2.03934884 L2.40568446,2.03934884 C2.02733039,2.06186047 1.9261662,2.18465116 1.90896829,2.56939535 L1.90896829,6.39944186 L2.42692894,6.39944186 L2.42692894,2.72697674 C2.4451385,2.54688372 2.54427941,2.44660465 2.72940988,2.4292093 L3.81894821,2.4292093 L3.81894821,3.08613953 L2.75571257,3.08613953 L2.75571257,3.41255814 L3.81894821,3.41255814 L3.81894821,4.11655814 L4.30757126,4.11655814 L4.30757126,3.41255814 L5.39913288,3.41255814 L5.39913288,3.08613953 L4.30757126,3.08613953 L4.30757126,2.4292093 L5.42644721,2.4292093 C5.60753111,2.4292093 5.69453232,2.5264186 5.69453232,2.72697674 L5.69453232,5.71795349 C5.69453232,5.86018605 5.60753111,5.94511628 5.42644721,5.94511628 L4.79518266,5.94511628 L4.79821758,6.3615814 L5.63585709,6.3615814 C6.01926937,6.3615814 6.21148133,6.17534884 6.21148133,5.81004651 L6.2155279,2.596 C6.2155279,2.17748837 6.07490967,2.03934884 5.63889201,2.03934884 L5.17859494,2.03934884 C5.32427138,1.7692093 5.44465676,1.40390698 5.53064633,1.14195349 L6.46135688,1.14195349 L6.46135688,1.14195349 L6.46135688,1.14195349 Z M4.63736652,2.03934884 L3.52051385,2.03934884 C3.49926937,1.98818605 3.17250903,1.25860465 3.13811321,1.14195349 L4.98840626,1.14195349 C4.9529988,1.21972093 4.67277399,1.9544186 4.63736652,2.03934884 L4.63736652,2.03934884 L4.63736652,2.03934884 Z"></path>
                            </g>
                            <path d="M54.6246166,6.36362791 L54.6246166,3.66734884 L55.2052991,3.66734884 L55.2265436,5.94409302 L57.3368286,5.94409302 L57.3368286,3.17209302 L54.8734805,3.17209302 L54.8896668,0.636465116 L55.4410116,0.636465116 L55.4511281,2.72390698 L57.3378402,2.72390698 L57.3378402,0.20772093 L57.985291,0.20772093 L57.985291,2.72390698 L59.6716981,2.72390698 C59.8497471,2.70753488 59.9407949,2.6052093 59.9407949,2.42409302 L59.9407949,0.636465116 L60.4992212,0.636465116 L60.4992212,2.67069767 C60.465837,2.97153488 60.301951,3.13525581 60.0055399,3.17209302 L57.985291,3.17209302 L57.985291,5.94409302 L59.8679566,5.94409302 C60.0500522,5.94409302 60.1390767,5.84688372 60.1390767,5.66372093 L60.1390767,3.66734884 L60.7207708,3.66734884 L60.7207708,5.83767442 C60.7015496,6.16818605 60.4921397,6.34418605 60.0804014,6.36260465 L54.6246166,6.36260465 L54.6246166,6.36362791 L54.6246166,6.36362791 Z" id="Shape"></path>
                            <polygon id="Shape" points="18.0810759 2.93265116 18.0810759 2.43023256 23.8069691 2.43023256 23.8069691 2.93981395"></polygon>
                            <path d="M46.300827,6.4332093 L45.8820072,6.13032558 C46.3200482,5.75376744 46.7317864,5.33218605 47.0464071,4.8144186 C46.8258691,4.59134884 46.0772541,3.81367442 46.0772541,3.81367442 L46.5486792,1.57683721 L45.998346,1.57683721 L45.998346,1.15627907 L46.6316339,1.15627907 L46.7965315,0.210790698 L47.3468647,0.210790698 L47.156676,1.15627907 L47.9255239,1.15218605 C48.3888559,1.13786047 48.4465195,1.29646512 48.4525893,1.74362791 C48.4586592,2.24911628 48.3676114,2.78734884 48.2421678,3.24883721 C48.0175833,4.07562791 47.6807065,4.71618605 47.6807065,4.71618605 L48.6771738,5.72613953 L48.315006,6.06483721 C48.0388278,5.80288372 47.7323003,5.51432558 47.4035167,5.2012093 C47.1819671,5.59413953 46.8157527,5.99934884 46.300827,6.4332093 L46.300827,6.4332093 L46.300827,6.4332093 Z M47.320562,4.28744186 C47.6857648,3.60186047 47.987234,2.79860465 47.987234,1.75897674 C47.987234,1.6095814 47.8850582,1.57786047 47.7626495,1.57683721 L47.1010357,1.57683721 L46.6903091,3.61413953 C46.6913208,3.61413953 47.2679566,4.23627907 47.320562,4.28744186 L47.320562,4.28744186 L47.320562,4.28744186 Z M52.2027459,3.41665116 L50.6579687,3.41665116 L50.6579687,5.8427907 C50.6579687,6.19683721 50.4182096,6.37386047 49.9417262,6.37386047 L48.7156162,6.39227907 L48.7277559,5.95739535 L49.6382336,5.95739535 C49.9316098,5.97172093 50.0449137,5.86837209 50.0499719,5.59413953 L50.0499719,3.41665116 L48.4232517,3.41665116 L48.4232517,3.00018605 L50.0499719,3.00018605 L50.0499719,2.46809302 C50.6124448,1.92986047 51.0231714,1.51851163 51.4207467,1.09795349 L48.7550703,1.10818605 L48.7550703,0.654883721 L51.7131112,0.655906977 C51.9852429,0.645674419 52.2209554,0.947534884 51.9356724,1.24734884 C51.5907025,1.60753488 51.2416861,1.98306977 50.6508872,2.56734884 L50.6579687,3.00018605 L52.2027459,3.00018605 L52.2027459,3.41665116 L52.2027459,3.41665116 L52.2027459,3.41665116 Z" id="Shape"></path>
                            <path d="M64.0399679,6.55190698 L64.0399679,3.74 C63.9630831,3.85051163 63.8356162,4.00809302 63.6535207,4.21069767 C63.6342995,4.25367442 63.6160899,4.28027907 63.5999037,4.29869767 L63.189177,4.01730233 C63.6990446,3.41972093 64.1310157,2.77302326 64.4800321,2.06595349 L65.0040626,2.06595349 C64.785548,2.56530233 64.5700682,3.04623256 64.5700682,3.04623256 L64.6196387,6.55293023 L64.0399679,6.55293023 L64.0399679,6.55190698 L64.0399679,6.55190698 Z M63.6778001,2.29209302 L63.2660618,2.04344186 C63.7101726,1.52260465 64.0945965,0.926046512 64.4233802,0.261953488 L64.9757367,0.261953488 C64.6034524,1.01506977 64.1745163,1.69655814 63.6778001,2.29209302 L63.6778001,2.29209302 L63.6778001,2.29209302 Z M66.635841,6.46697674 L66.6277479,6.05153488 L67.6171337,6.05153488 C67.8194621,6.06893023 67.918603,5.9747907 67.918603,5.77423256 L67.918603,2.84874419 L65.3014853,2.84874419 L65.3014853,2.43227907 L69.5989402,2.43227907 L69.5989402,2.84874419 L68.5002971,2.84874419 L68.5002971,5.96967442 C68.460843,6.26539535 68.285829,6.43013953 67.9732316,6.46697674 L66.635841,6.46697674 L66.635841,6.46697674 L66.635841,6.46697674 Z M65.6646648,0.925023256 L65.6646648,0.478883721 L69.3237736,0.478883721 L69.3237736,0.925023256 L65.6646648,0.925023256 L65.6646648,0.925023256 L65.6646648,0.925023256 Z" id="Shape"></path>
                        </g>
                    </g>
                    <g id="Shape">
                        <path d="M27.363902,34.2729302 C36.5121798,33.9823256 43.7656523,26.6210233 43.8718747,17.4792558 L43.8708631,9.6175814 L53.9367001,9.6175814 L53.9367001,18.3091163 C53.7404416,32.4453953 41.5896106,43.5978605 27.363902,43.9181395 L27.363902,43.916093 C12.9024809,43.8260465 0.66161381,32.5937674 0.462320353,18.308093 L0.462320353,2.684 C0.439052589,1.08567442 1.46890405,0.0491162791 3.02076275,0.0736744186 L43.8658049,0.071627907 L43.8658049,9.61451163 L11.837222,9.62269767 C11.0147571,9.62269767 10.5230992,10.1292093 10.5230992,10.9529302 L10.5230992,17.3196279 C10.6313448,26.584186 18.0092493,34.1787907 27.3628904,34.2729302 L27.363902,34.2729302 L27.363902,34.2729302 L27.363902,34.2729302 Z" fill="url(#linearGradient-1)"></path>
                        <path d="M43.1283179,0.817581395 L43.1283179,8.86855814 L11.8382336,8.87572093 C10.6101004,8.87572093 9.7856122,9.70967442 9.7856122,10.951907 L9.7856122,17.327814 C9.84024087,22.0225116 11.6763709,26.4388837 14.9540907,29.7613953 C18.2368687,33.0890233 22.6162666,34.9544186 27.2910638,35.0178605 L27.3082617,35.0209302 L27.3871698,35.0188837 C36.9340345,34.716 44.4990927,27.0149767 44.6103733,17.4792558 L44.6093617,10.3635349 L53.1992132,10.3635349 L53.1992132,18.2988837 C53.1081654,24.8692093 50.3403131,31.0670698 45.4065355,35.7505116 C40.5466078,40.3643721 34.1671939,42.9972093 27.434717,43.1701395 L27.3689603,43.1701395 C20.5100281,43.1271628 14.0112405,40.5413953 9.06835809,35.8896744 C4.08804496,31.2021395 1.29389,24.9541395 1.20081895,18.3091163 L1.20081895,2.67376744 C1.19272581,2.10074419 1.35458852,1.62697674 1.66920915,1.30260465 C1.97674829,0.986418605 2.42692894,0.819627907 2.96916901,0.819627907 L3.02177439,0.819627907 L43.1283179,0.817581395 L43.1283179,0.817581395 L43.1283179,0.817581395 Z M43.8668165,0.071627907 L3.02177439,0.0736744186 L2.96916901,0.0736744186 C1.44664793,0.0736744186 0.439052589,1.10511628 0.462320353,2.68502326 L0.462320353,18.3091163 C0.66161381,32.5937674 12.9024809,43.8270698 27.363902,43.9171163 L27.363902,43.9191628 C41.5896106,43.5978605 53.7404416,32.4464186 53.9367001,18.3101395 L53.9367001,9.61860465 L43.8708631,9.61860465 L43.8718747,17.4802791 C43.7656523,26.6210233 36.5111682,33.9833488 27.363902,34.2739535 L27.3628904,34.2739535 C18.0092493,34.179814 10.6323565,26.5852093 10.5230992,17.3206512 L10.5230992,10.9539535 C10.5230992,10.1312558 11.0157688,9.62372093 11.837222,9.62372093 L43.8658049,9.61553488 L43.8658049,0.071627907 L43.8668165,0.071627907 L43.8668165,0.071627907 L43.8668165,0.071627907 Z" fill="url(#linearGradient-2)"></path>
                        <path d="M27.363902,34.2729302 C36.5121798,33.9823256 43.7656523,26.6210233 43.8718747,17.4792558 L43.8708631,9.6175814 L53.9367001,9.6175814 L53.9367001,18.3091163 C53.7404416,32.4453953 41.5896106,43.5978605 27.363902,43.9181395 L27.363902,43.916093 C12.9024809,43.8260465 0.66161381,32.5937674 0.462320353,18.308093 L0.462320353,2.684 C0.439052589,1.08567442 1.46890405,0.0491162791 3.02076275,0.0736744186 L43.8658049,0.071627907 L43.8658049,9.61451163 L11.837222,9.62269767 C11.0147571,9.62269767 10.5230992,10.1292093 10.5230992,10.9529302 L10.5230992,17.3196279 C10.6313448,26.584186 18.0092493,34.1787907 27.3628904,34.2729302 L27.363902,34.2729302 L27.363902,34.2729302 L27.363902,34.2729302 Z" fill="url(#linearGradient-3)"></path>
                    </g>
                </g>
            </g>
        </g>
    </g>
</svg>